[
  {
    "question": "A section of code that responds to a particular interaction of the user with a gui control is called a ... ?",
    "answers": [
      {
        "id": 0,
        "content": "dispatch function"
      },
      {
        "id": 1,
        "content": "event handler"
      },
      {
        "id": 2,
        "content": "control structure"
      },
      {
        "id": 3,
        "content": "exception handler"
      }
    ],
    "correctAnswer": 0
  },
  {
    "question": "RISC is ...",
    "answers": [
      {
        "id": 0,
        "content": "a defensive programming style"
      },
      {
        "id": 1,
        "content": "a web framework"
      },
      {
        "id": 2,
        "content": "a threading library"
      },
      {
        "id": 3,
        "content": "a CPU design strategy"
      }
    ],
    "correctAnswer": 3
  },
  {
    "question": "EBNF is ...",
    "answers": [
      {
        "id": 0,
        "content": "Extensible Book Notation Format"
      },
      {
        "id": 1,
        "content": "a replacement for the SAX XML parser"
      },
      {
        "id": 2,
        "content": "a syntax for defining grammar"
      },
      {
        "id": 3,
        "content": "the leader of the free software foundation"
      }
    ],
    "correctAnswer": 2
  },
  {
    "question": "A true or false statement put into code that the programmer expects to always be true is an ...",
    "answers": [
      {
        "id": 0,
        "content": "exception"
      },
      {
        "id": 1,
        "content": "harness"
      },
      {
        "id": 2,
        "content": "assertion"
      },
      {
        "id": 3,
        "content": "expression"
      }
    ],
    "correctAnswer": 2
  }
]
