<svg xmlns="http://www.w3.org/2000/svg" xmlns:xlink="http://www.w3.org/1999/xlink" width="256" height="50" version="1.1" style=""><rect id="backgroundrect" width="100%" height="100%" x="0" y="0" fill="none" stroke="none"/>
    <!-- Generator: Sketch 54 (76480) - https://sketchapp.com -->
    <title>symphony-logo</title>
    <desc>Created with Sketch.</desc>
    
<g class="currentLayer" style=""><title>Layer 1</title><g id="Page-1" stroke="none" stroke-width="1" fill="#6767e7" fill-rule="evenodd" class="selected" fill-opacity="1">
        <g id="end" fill="#6767e7" fill-opacity="1">
            <g id="logo" fill="#6767e7" fill-opacity="1">
                <g id="symphony-logo" fill="#6767e7" fill-opacity="1">
                    <path d="M12,11.042973599999982 C11.607096299999967,11.017288200000053 11.180798300000106,11 10.792590699999892,11 C10.669449499999928,11 10.597443299999895,11.00296370000001 10.474823900000047,11.005927400000019 L10,11.50333420000004 L10,13 L12,11.042973599999982 " id="Fill-1" fill="#6767e7" fill-opacity="1"/>
                    <path d="M14,12.19078879999995 C13.656426600000032,12.11779469999999 13.335456699999895,12.053297300000054 12.984074799999917,12 L10,14.829390800000056 L10,16 L14,12.19078879999995 " id="Fill-2" fill="#6767e7" fill-opacity="1"/>
                    <path d="M15.035113899999942,12 L10,17 C10.059161500000073,16.992814899999985 10.118322999999918,16.984361799999988 10.178761399999985,16.97844459999999 C10.181315199999972,16.97844459999999 10.184294500000078,16.97802200000001 10.186848300000065,16.97802200000001 C10.393700800000033,16.95815719999996 10.606937600000037,16.948013500000002 10.824856400000044,16.948013500000002 C10.991274700000076,16.948013500000002 11.156416300000046,16.9564666 11.321132199999965,16.969146199999955 L16,12.322907900000018 C15.688869999999952,12.20879119999995 15.367099399999915,12.100169100000016 15.035113899999942,12 " id="Fill-3" fill="#6767e7" fill-opacity="1"/>
                    <path d="M10.248171899999988,21.27006849999998 C10.07764629999997,21.18046049999998 9.987940499999922,21.090852499999983 9.751828100000012,21 L9.751828100000012,22 L10.248171899999988,21.27006849999998 " id="Fill-4" fill="#6767e7" fill-opacity="1"/>
                    <path d="M18,13.460743200000024 C17.75257069999998,13.302557699999966 17.48505780000005,13.148382500000025 17.19786309999995,13 L13,17.65689329999998 C13.310893300000089,17.751359099999945 13.614154899999903,17.86676769999997 13.907776300000023,18 L18,13.460743200000024 " id="Fill-5" fill="#6767e7" fill-opacity="1"/>
                    <path d="M13,22.326189500000055 C12.62088719999997,22.213459100000023 12.280078600000024,22.105443599999944 11.917171399999916,22 L10,23.701242999999977 L10,25 L13,22.326189500000055 " id="Fill-6" fill="#6767e7" fill-opacity="1"/>
                    <path d="M15,18.541813899999966 C15.288691799999924,18.685905000000048 15.564523300000019,18.840204200000016 15.825720600000068,19 L16.515742799999998,18.38947780000001 L19,15 L15,18.541813899999966 " id="Fill-7" fill="#6767e7" fill-opacity="1"/>
                    <path d="M14.022498399999904,22 L10,25.95646439999996 L10,26.893579599999953 C10,26.929199599999947 10.140615100000105,26.96481970000002 10.239499199999955,27 L15,22.385224300000004 C14.676131700000042,22.248900599999956 14.349541900000077,22.120492499999955 14.022498399999904,22 " id="Fill-8" fill="#6767e7" fill-opacity="1"/>
                    <path d="M16.579268299999967,23.210168299999964 C16.560569100000066,23.198831400000017 16.541869899999938,23.187494499999957 16.523170700000037,23.176157699999976 C16.423577199999954,23.115548999999987 16.321951200000058,23.057556500000032 16.220325199999934,23 L12,27.526903299999958 C12.012601599999925,27.533443799999986 12.02520329999993,27.539984300000015 12.037804900000083,27.546524800000043 C12.121138199999905,27.58882010000002 12.202032500000087,27.63242349999996 12.280487799999946,27.67602690000001 C12.317073200000095,27.696956499999942 12.354471500000045,27.71745009999995 12.390243900000087,27.73794369999996 C12.49349589999997,27.79855239999995 12.5926829,27.86003310000001 12.686585400000013,27.923694100000034 C12.71178860000009,27.94069939999997 12.7349592999999,27.958576799999946 12.75934959999995,27.975582099999997 C12.770325199999888,27.983430699999985 12.780081299999893,27.991715399999975 12.791056900000058,28 L17,23.484869600000025 C16.862195100000008,23.390250300000048 16.722357699999975,23.298247100000026 16.579268299999967,23.210168299999964 " id="Fill-9" fill="#6767e7" fill-opacity="1"/>
                    <path d="M12,31 C11.414364599999999,31.192000000000007 10.776243100000102,31.298133300000018 10.050828700000011,31.299733299999957 L10,31.383466699999985 L10,33 L12,31 " id="Fill-10" fill="#6767e7" fill-opacity="1"/>
                    <path d="M13.094664400000056,29.048017699999946 C13.098762399999941,29.057605999999964 13.100811400000111,29.06765089999999 13.104499600000054,29.0767826 C13.138103400000091,29.16444720000004 13.163921000000073,29.255764399999975 13.18400130000009,29.34890800000005 C13.189738499999976,29.376303200000052 13.195065999999997,29.403241800000046 13.199983599999996,29.431093499999974 C13.2176050999999,29.53610839999999 13.22989920000009,29.6438627 13.22989920000009,29.75755270000002 C13.22989920000009,29.839738200000056 13.224571799999921,29.92055400000004 13.214736500000072,30 L18,24.668442300000038 C17.84017700000004,24.48078529999998 17.67543640000008,24.299064000000044 17.500450799999953,24.129670499999975 C17.476682199999914,24.106841199999963 17.452094100000068,24.084925 17.427915700000085,24.062095699999986 C17.405376599999954,24.040636199999994 17.380788500000108,24.02100299999995 17.358249299999898,24 L13,28.85533829999997 C13.035243000000037,28.91834719999997 13.06802719999996,28.981812600000012 13.094664400000056,29.048017699999946 " id="Fill-11" fill="#6767e7" fill-opacity="1"/>
                    <path d="M19,26.81070969999996 C18.959450199999992,26.721739500000012 18.89391529999989,26.631522099999984 18.849679200000082,26.54587790000005 C18.834933800000044,26.517606999999998 18.808719800000063,26.488088800000014 18.793564800000013,26.460233700000003 C18.707959800000026,26.30100200000004 18.661675699999932,26.148422200000027 18.56419239999991,26 L10,34.73986609999997 L10,36 L19,26.81070969999996 " id="Fill-12" fill="#6767e7" fill-opacity="1"/>
                    <path d="M20,29.139928199999986 C19.996559700000034,29.10312799999997 19.99311949999992,29.06676600000003 19.989679199999955,29.029965800000014 C19.970757699999922,28.851222300000018 19.946675800000094,28.676859700000023 19.91786359999992,28.506878099999994 C19.907972799999925,28.450363599999946 19.899802200000067,28.392972900000018 19.889051299999892,28.33777269999996 C19.867119600000024,28.223429399999986 19.842177700000093,28.1108385 19.815945600000077,28 L10,38 C10.465296300000091,37.99605710000003 10.926292300000114,37.97108560000004 11.379977600000075,37.92158070000005 L20,29.139928199999986 " id="Fill-13" fill="#6767e7" fill-opacity="1"/>
                    <path d="M19.547202799999923,31.826717600000052 C19.774281299999984,31.25513179999996 19.927026699999942,30.64456389999998 20,30 L13,37 C13.756928300000027,36.80146339999999 14.479409499999974,36.54037430000005 15.153392899999972,36.22035870000002 L19.547202799999923,31.826717600000052 " id="Fill-14" fill="#6767e7" fill-opacity="1"/>
                    <path d="M144,15 L146,13 C145.28673500000002,13.351417699999956 144.49888299999998,13.771600799999987 144,14.25072560000001 L144,15 " id="Fill-15" fill="#6767e7" fill-opacity="1"/>
                    <path d="M150,11 C149.46220800000003,11.045438200000035 148.979732,11.128525100000047 148.46652500000005,11.243202300000007 L144,15.688784700000042 L144,17 L150,11 " id="Fill-16" fill="#6767e7" fill-opacity="1"/>
                    <path d="M153,11.129565200000002 C152.59953500000006,11.067391300000054 152.23782400000005,11.022608699999978 151.82666800000004,11 L144,18.682608699999946 L144,20 L153,11.129565200000002 " id="Fill-17" fill="#6767e7" fill-opacity="1"/>
                    <path d="M155,12.310062700000003 C154.69258000000002,12.194300500000054 154.38020200000005,12.088764699999956 154.06121200000007,12 L148,18 C148.50947399999995,17.821243500000037 149.05324399999995,17.69320970000001 149.62304500000005,17.63307880000002 L155,12.310062700000003 " id="Fill-18" fill="#6767e7" fill-opacity="1"/>
                    <path d="M157,13.434869899999967 C156.72666200000003,13.2786701 156.444661,13.135319600000003 156.15659500000004,13 L151,17.779954999999973 C151.37643500000001,17.82492769999999 151.735543,17.8988114 152.075157,18 L157,13.434869899999967 " id="Fill-19" fill="#6767e7" fill-opacity="1"/>
                    <path d="M158,14.561414900000045 C157.789757,14.366298899999947 157.57398,14.17726760000005 157.34911499999998,14 L153,18.464546499999983 C153.24818200000004,18.620720399999982 153.47344299999997,18.80082749999997 153.67578200000003,19 L158,14.561414900000045 " id="Fill-20" fill="#6767e7" fill-opacity="1"/>
                    <path d="M159,15.750170700000012 C158.90690399999994,15.611334499999998 158.811012,15.475229499999955 158.71192300000007,15.341855699999996 C158.62681799999996,15.225324300000011 158.536919,15.112889799999948 158.44781799999998,15 L154,20.067293800000016 C154.15023199999996,20.344966200000044 154.28128500000003,20.65313709999998 154.39236099999994,21 L159,15.750170700000012 " id="Fill-21" fill="#6767e7" fill-opacity="1"/>
                    <path d="M161,17.788300800000002 C160.854382,17.513330699999983 160.69707900000003,17.25149220000003 160.52809000000002,17 L155,21.894548299999997 C155.05752800000005,22.22960599999999 155.09573,22.596498200000042 155.11370799999997,23 L161,17.788300800000002 " id="Fill-22" fill="#6767e7" fill-opacity="1"/>
                    <path d="M161,19.96160789999999 C160.91902400000004,19.625575300000037 160.85522500000002,19.305447100000038 160.75298199999997,19 L155,24.76434610000001 L155,26 L161,19.96160789999999 " id="Fill-23" fill="#6767e7" fill-opacity="1"/>
                    <path d="M162,22.181842800000027 C161.96495300000004,21.770106800000008 161.94967599999995,21.376593100000036 161.893061,21 L155,27.68539510000005 L155,29 L162,22.181842800000027 " id="Fill-24" fill="#6767e7" fill-opacity="1"/>
                    <path d="M161.94568800000002,25.27455329999998 L161.94568800000002,24.502801599999998 C161.94568800000002,24.330690300000015 162.00257599999998,24.166190899999947 161.999909,24 L155,30.71868059999997 L155,32 L161.94568800000002,25.27455329999998 " id="Fill-25" fill="#6767e7" fill-opacity="1"/>
                    <polyline id="Fill-26" points="162,28.280517578125 162,27 155,33.719482421875 155,35 162,28.280517578125 " fill="#6767e7" fill-opacity="1"/>
                    <polyline id="Fill-27" points="162,30 155,36.32257080078125 155,37 155.35699462890625,37 162,31.20458984375 162,30 " fill="#6767e7" fill-opacity="1"/>
                    <polyline id="Fill-28" points="162,33.3992919921875 162,32 157,37 158.3675537109375,37 162,33.3992919921875 " fill="#6767e7" fill-opacity="1"/>
                    <polyline id="Fill-29" points="162,36.49755859375 162,35 160,37 161.40911865234375,37 162,36.49755859375 " fill="#6767e7" fill-opacity="1"/>
                    <polyline id="Fill-30" points="199,13 200,12 199,12 199,13 " fill="#6767e7" fill-opacity="1"/>
                    <polyline id="Fill-31" points="203,12 201.603515625,12 199,14.60400390625 199,16 203,12 " fill="#6767e7" fill-opacity="1"/>
                    <polyline id="Fill-32" points="206,12.077880859375 206,12 204.5684814453125,12 199,17.6280517578125 199,19 206,12.077880859375 " fill="#6767e7" fill-opacity="1"/>
                    <path d="M208,12 C207.131123,12.409559700000045 206.37650400000007,12.926129299999957 205.66281400000003,13.527361300000052 L205.66281400000003,13.125537200000053 L199,19.697832100000028 L199,21 L208,12 " id="Fill-33" fill="#6767e7" fill-opacity="1"/>
                    <path d="M212,11 C211.477894,11.03759219999995 210.96269299999994,11.108887900000013 210.47165399999994,11.211726399999975 L199,22.690321100000006 L199,24 L212,11 " id="Fill-34" fill="#6767e7" fill-opacity="1"/>
                    <path d="M215,11.155605300000047 C214.627972,11.092351099999973 214.249278,11.025723399999947 213.86683500000004,11 L201,24 L202.26231200000007,24 L215,11.155605300000047 " id="Fill-35" fill="#6767e7" fill-opacity="1"/>
                    <path d="M216.053318,12 L210,18 C210.50475700000004,17.837658300000044 211.03925600000002,17.720988199999965 211.598887,17.673655800000006 L217,12.320116299999995 C216.69044299999996,12.200539800000001 216.37502199999994,12.092588699999965 216.053318,12 " id="Fill-36" fill="#6767e7" fill-opacity="1"/>
                    <polyline id="Fill-37" points="206,23.53289794921875 206,22 203,25 204.4288330078125,25 206,23.53289794921875 " fill="#6767e7" fill-opacity="1"/>
                    <path d="M219,13.443425100000013 C218.72719299999994,13.28488649999997 218.44697900000006,13.137614699999972 218.159355,13 L213,17.763801700000045 C213.37347499999998,17.8149042 213.72951799999998,17.894173499999965 214.06464299999993,18 L219,13.443425100000013 " id="Fill-38" fill="#6767e7" fill-opacity="1"/>
                    <path d="M219.35247500000003,14 L215,18.454442299999982 C215.24237600000004,18.61373219999996 215.46495000000004,18.793287899999996 215.661386,18.994325600000025 C215.663366,18.995946799999956 215.66494999999998,18.997973399999978 215.66693099999998,19 L220,14.565418300000033 C219.791287,14.368839200000025 219.576634,14.179150499999992 219.35247500000003,14 " id="Fill-39" fill="#6767e7" fill-opacity="1"/>
                    <path d="M222,15.753229099999999 C221.89145199999996,15.588715200000024 221.77971100000002,15.426467300000013 221.662782,15.269204599999966 C221.59533899999997,15.17720369999995 221.523905,15.089281700000015 221.454067,15 L217,20.058236999999963 C217.14606100000003,20.339224999999942 217.27416400000004,20.64921819999995 217.380318,21 L222,15.753229099999999 " id="Fill-40" fill="#6767e7" fill-opacity="1"/>
                    <path d="M223,17.78969219999999 C222.85718499999996,17.514466500000026 222.70317899999998,17.251499400000057 222.53708400000005,17 L217,21.89079289999995 C217.05282799999998,22.227311699999973 217.08685300000002,22.59546560000001 217.100731,23 L223,17.78969219999999 " id="Fill-41" fill="#6767e7" fill-opacity="1"/>
                    <path d="M224,20.095573899999977 C223.91752700000006,19.722430600000052 223.82479899999998,19.339384799999948 223.72053299999993,19 L218,25 L219.29477999999995,25 L224,20.095573899999977 " id="Fill-42" fill="#6767e7" fill-opacity="1"/>
                    <path d="M224,22.078335700000025 C223.97344199999998,21.71080010000003 223.93803000000003,21.335944499999982 223.89339700000005,21 L221,24 L222.11766899999998,24 L224,22.078335700000025 " id="Fill-43" fill="#6767e7" fill-opacity="1"/>
                    <path d="M225,24.727598599999965 C225,24.507526900000016 224.900532,24.215053799999964 224.89840400000003,24 L224,25 L225,25 L225,24.727598599999965 " id="Fill-44" fill="#6767e7" fill-opacity="1"/>
                    <polyline id="Fill-45" points="59,12 57.8924560546875,12 56,14.56280517578125 56,16 59,12 " fill="#6767e7" fill-opacity="1"/>
                    <polyline id="Fill-46" points="62,12 60.786865234375,12 56,16.8048095703125 56,18 62,12 " fill="#6767e7" fill-opacity="1"/>
                    <path d="M65,12 C64.15189379999993,12.401257399999963 63.513534400000026,12.929932300000019 62.54427020000003,13.597254900000053 L62.54427020000003,13.085856899999953 L56,19.691270300000042 L56,21 L65,12 " id="Fill-47" fill="#6767e7" fill-opacity="1"/>
                    <path d="M69,11 C68.49261699999988,11.027855000000045 68.00399360000006,11.08965820000003 67.50664469999992,11.186280099999976 L56,22.680806200000006 L56,24 L69,11 " id="Fill-48" fill="#6767e7" fill-opacity="1"/>
                    <polyline id="Fill-49" points="56,13 57,12 56,12 56,13 " fill="#6767e7" fill-opacity="1"/>
                    <path d="M71,11.177769799999965 C70.63488800000005,11.107675299999983 70.26309190000006,11.032513699999981 69.8858651999999,11 L57,24 L58.266195200000084,24 L71,11.177769799999965 " id="Fill-50" fill="#6767e7" fill-opacity="1"/>
                    <polyline id="Fill-51" points="63,23.47113037109375 63,22 60,25 61.330078125,25 63,23.47113037109375 " fill="#6767e7" fill-opacity="1"/>
                    <path d="M73.05454880000002,12 L67,18 C67.49762830000009,17.838008899999977 68.03229140000008,17.730436599999962 68.59930669999994,17.69331360000001 L74,12.341700100000025 C73.69222820000005,12.213457100000028 73.37636829999997,12.100822600000015 73.05454880000002,12 " id="Fill-52" fill="#6767e7" fill-opacity="1"/>
                    <path d="M75,13.467104199999994 C74.73057610000001,13.301814899999954 74.45361890000004,13.145033199999943 74.16779909999991,13 L69,17.724517900000023 C69.35051700000008,17.784475799999996 69.7005908000001,17.87522279999996 70.04180210000004,18 L75,13.467104199999994 " id="Fill-53" fill="#6767e7" fill-opacity="1"/>
                    <path d="M76.36450169999989,14 L72,18.419650100000013 C72.22476400000005,18.585290800000053 72.43792989999997,18.77523080000003 72.63509840000006,18.994735099999957 C72.63629820000006,18.99635509999996 72.6378979000001,18.997975099999962 72.6390977000001,19 L77,14.583994800000028 C76.79723239999998,14.380285100000037 76.58446649999996,14.186295200000018 76.36450169999989,14 " id="Fill-54" fill="#6767e7" fill-opacity="1"/>
                    <path d="M82,12 C80.8200773000001,12.507643199999961 79.7591101999999,13.189435000000003 78.84641880000004,13.958301099999971 L73,20.034781299999963 C73.1352910999999,20.319514300000037 73.25005820000001,20.6364648 73.34136919999992,21 L82,12 " id="Fill-55" fill="#6767e7" fill-opacity="1"/>
                    <path d="M74.10063149999996,24 L86,12 C85.50512479999998,12.03234610000004 84.98126100000002,12.099111900000025 84.51123299999995,12.19200330000001 L74,22.78079969999999 C74.02401899999995,23.092234899999994 74.10063149999996,23.42730759999995 74.10063149999996,23.79514119999999 L74.10063149999996,24 " id="Fill-56" fill="#6767e7" fill-opacity="1"/>
                    <path d="M88,11.15989490000004 C87.62770609999995,11.095768199999952 87.25040950000005,11.027422600000023 86.87061140000003,11 L74,24 L75.26321430000007,24 L88,11.15989490000004 " id="Fill-57" fill="#6767e7" fill-opacity="1"/>
                    <path d="M80,22.230215799999996 C79.9759868000001,21.81064749999996 79.94203700000003,21.381582699999967 79.90146290000007,21 L77,24 L78.25489930000003,24 L80,22.230215799999996 " id="Fill-58" fill="#6767e7" fill-opacity="1"/>
                    <path d="M90.07509470000002,12 L84,18 C84.52974080000001,17.776062300000035 85.10352460000001,17.61052559999996 85.71237980000001,17.528764199999955 L91,12.306504700000005 C90.69740750000005,12.19211919999998 90.38910569999996,12.089414000000033 90.07509470000002,12 " id="Fill-59" fill="#6767e7" fill-opacity="1"/>
                    <polyline id="Fill-60" points="80.11572265625,23.88409423828125 79.88427734375,24.11590576171875 80.11572265625,24.11590576171875 80.11572265625,23.88409423828125 " fill="#6767e7" fill-opacity="1"/>
                    <path d="M92.14966479999998,13 L87,17.772672000000057 C87.360682,17.815219999999954 87.72355000000005,17.88978039999995 88.08029729999998,18 L93,13.43966290000003 C92.72413289999997,13.282842999999957 92.44039640000005,13.136558899999955 92.14966479999998,13 " id="Fill-61" fill="#6767e7" fill-opacity="1"/>
                    <path d="M93.3467197,14 L89,18.454812199999992 C89.23578529999997,18.609241300000008 89.46202779999999,18.789748199999963 89.67236579999997,19 L94,14.565561099999968 C93.79045729999996,14.368755599999986 93.57375750000006,14.178469599999971 93.3467197,14 " id="Fill-62" fill="#6767e7" fill-opacity="1"/>
                    <path d="M96,15.763181799999984 C95.89556560000005,15.601363600000013 95.78831939999998,15.441818199999943 95.67705660000001,15.287272700000017 C95.60676409999996,15.189090899999997 95.53125,15.09545449999996 95.45734249999998,15 L91,20.044090900000015 C91.14540490000002,20.326363600000036 91.27032459999998,20.640454500000033 91.37234899999999,21 L96,15.763181799999984 " id="Fill-63" fill="#6767e7" fill-opacity="1"/>
                    <path d="M97,17.790749600000026 C96.858296,17.516786000000025 96.70493269999997,17.253071399999953 96.54080720000002,17 L91,21.870245100000034 C91.04349779999995,22.208856200000014 91.06860989999996,22.58333879999998 91.0735426,23 L97,17.790749600000026 " id="Fill-64" fill="#6767e7" fill-opacity="1"/>
                    <path d="M98,20.092710799999963 C97.91710579999994,19.723369100000014 97.82310210000003,19.341866200000027 97.7171343,19 L92,25 L93.29468740000004,25 L98,20.092710799999963 " id="Fill-65" fill="#6767e7" fill-opacity="1"/>
                    <path d="M98,22.080585100000008 C97.97602359999996,21.714487400000053 97.94098120000001,21.339920399999983 97.89634820000003,21 L95,24 L96.11803759999998,24 L98,22.080585100000008 " id="Fill-66" fill="#6767e7" fill-opacity="1"/>
                    <polyline id="Fill-67" points="98,24 97,25 98,25 98,24 " fill="#6767e7" fill-opacity="1"/>
                    <path d="M167,24 C167,24.451130899999953 167.01627299999996,24.670032300000003 167.04068200000006,25 L168,24 L167,24 " id="Fill-68" fill="#6767e7" fill-opacity="1"/>
                    <path d="M171,24 L169.62570800000003,24 L167,26.8416115 C167.07073200000002,27.243295200000034 167.156427,27.61082380000005 167.25663099999997,28 L171,24 " id="Fill-69" fill="#6767e7" fill-opacity="1"/>
                    <path d="M174,24.156224199999997 C173.99913600000002,24.121107499999994 173.997839,24 173.997839,24 L172.78988700000002,24 L168,29.041944899999976 C168.11885000000007,29.36744950000002 168.24850500000002,29.68710139999996 168.38982899999996,30 L174,24.156224199999997 " id="Fill-70" fill="#6767e7" fill-opacity="1"/>
                    <path d="M174,27.021956700000032 C173.89139799999998,26.692822699999965 173.80404499999997,26.3515946 173.73872700000004,26 L169,31.201353400000016 C169.14676899999995,31.473903999999948 169.301015,31.740839400000027 169.46470399999998,32 L174,27.021956700000032 " id="Fill-71" fill="#6767e7" fill-opacity="1"/>
                    <path d="M175,28.71394799999996 C174.81891999999993,28.48896769999999 174.65367400000002,28.249803000000043 174.50548100000003,28 L170,32.371946399999956 C170.18554599999993,32.58865249999997 170.38205400000004,32.79669030000002 170.583435,33 L175,28.71394799999996 " id="Fill-72" fill="#6767e7" fill-opacity="1"/>
                    <path d="M177,30.543926199999987 C176.75811,30.379512100000056 176.52943500000003,30.19779129999995 176.31477799999993,30 L172,34.440003299999944 C172.21626000000003,34.63449809999997 172.43972800000006,34.820751599999994 172.66960399999994,35 L177,30.543926199999987 " id="Fill-73" fill="#6767e7" fill-opacity="1"/>
                    <path d="M179,31.308591200000023 C178.64319,31.228768899999977 178.299895,31.12508230000003 177.97281899999996,31 L173,35.5412278 C173.28112299999998,35.70210659999998 173.56765300000006,35.856813699999975 173.86274200000003,36 L179,31.308591200000023 " id="Fill-74" fill="#6767e7" fill-opacity="1"/>
                    <path d="M181,31 C180.68334600000003,31.054765299999985 180.35574700000006,31.08351719999996 180.01798299999996,31.08351719999996 C179.92806900000005,31.08351719999996 179.838937,31.079866100000004 179.75019499999996,31.07575870000005 L175,36.621206400000005 C175.28107899999998,36.75903249999999 175.567631,36.88544920000004 175.86043799999993,37 L181,31 " id="Fill-75" fill="#6767e7" fill-opacity="1"/>
                    <path d="M187.08536200000003,25 C187.08536200000003,25.36254459999998 187.05582600000002,25.676403800000003 187,26 L188,25 L187.08536200000003,25 " id="Fill-76" fill="#6767e7" fill-opacity="1"/>
                    <path d="M191,24 L189.71314600000005,24 L185.83305500000006,27.9404002 C185.32527700000003,28.741592200000014 184.65531499999997,29.44487019999997 183.852039,29.951043000000027 L177,36.83397190000005 C177.35366199999999,36.91698599999995 177.71241800000007,36.944231599999966 178.07796800000006,37 L191,24 " id="Fill-77" fill="#6767e7" fill-opacity="1"/>
                    <path d="M194,25 L192.926243,25 L180,37.95349329999999 C180.24649799999997,37.96606989999998 180.495096,37.99751140000001 180.74579300000005,37.99751140000001 C180.92006400000002,37.99751140000001 181.09265400000004,38.00338050000005 181.26524500000005,37.9970922 L193.994961,25.246501599999988 C193.99580100000003,25.178587900000025 194,25.233925 194,25 " id="Fill-78" fill="#6767e7" fill-opacity="1"/>
                    <path d="M193.65272600000003,27.636848999999984 C193.80125399999997,27.10400059999995 193.91871400000002,26.558384299999943 194,26 L183,37 C183.56729999999993,36.90977329999998 184.12013000000002,36.78720109999995 184.65721400000007,36.632709100000056 L193.65272600000003,27.636848999999984 " id="Fill-79" fill="#6767e7" fill-opacity="1"/>
                    <path d="M192,31 L187,36 C189.13576,34.83957650000002 190.86595,33.10423449999996 192,31 " id="Fill-80" fill="#6767e7" fill-opacity="1"/>
                    <polyline id="Fill-81" points="34.421142578125,35 23,12 30.526489198207855,12 38,27.35113525390625 " fill="#6767e7" fill-opacity="1"/>
                    <polyline id="Fill-82" points="43.9287109375,12.0714111328125 44.0712890625,11.9285888671875 43.9921875,11.9285888671875 43.9287109375,12.0714111328125 " fill="#6767e7" fill-opacity="1"/>
                    <polyline id="Fill-83" points="47,12 45.7918701171875,12 42.967041015625,14.83721923828125 42,17 47,12 " fill="#6767e7" fill-opacity="1"/>
                    <polyline id="Fill-84" points="50,12 48.775390625,12 40.9801025390625,19.80596923828125 40,22 50,12 " fill="#6767e7" fill-opacity="1"/>
                    <polyline id="Fill-85" points="49.913330078125,15.3402099609375 51,13 38.054931640625,25.69012451171875 37.186767578125,27.6043701171875 37,28 49.913330078125,15.3402099609375 " fill="#6767e7" fill-opacity="1"/>
                    <polyline id="Fill-86" points="47.9200439453125,20.327880859375 49,18 36.1162109375,30.63653564453125 35,33 47.9200439453125,20.327880859375 " fill="#6767e7" fill-opacity="1"/>
                    <polyline id="Fill-87" points="45.924072265625,25.32110595703125 47,23 34.089111328125,35.66680908203125 33,38 45.924072265625,25.32110595703125 " fill="#6767e7" fill-opacity="1"/>
                    <polyline id="Fill-88" points="42.92578125,30.31634521484375 44,28 31.0869140625,40.67071533203125 30,43 42.92578125,30.31634521484375 " fill="#6767e7" fill-opacity="1"/>
                    <polyline id="Fill-89" points="40.928466796875,36.31201171875 42,34 29.084716856479645,46.675048828125 28,49 40.928466796875,36.31201171875 " fill="#6767e7" fill-opacity="1"/>
                    <polyline id="Fill-90" points="37.9404296875,41.3331298828125 39,39 28,50 29.2694091796875,50 37.9404296875,41.3331298828125 " fill="#6767e7" fill-opacity="1"/>
                    <polyline id="Fill-91" points="35.902099609375,46.4183349609375 37,44 31,50 32.3153076171875,50 35.902099609375,46.4183349609375 " fill="#6767e7" fill-opacity="1"/>
                    <polyline id="Fill-92" points="35,49 34,50 34.54541015625,50 35,49 " fill="#6767e7" fill-opacity="1"/>
                    <polyline id="Fill-93" points="238.420654296875,35 227,12 234.5260009765625,12 242,27.35113525390625 " fill="#6767e7" fill-opacity="1"/>
                    <polyline id="Fill-94" points="248.9287109375,12.0714111328125 249.0712890625,11.9285888671875 248.9921875,11.9285888671875 248.9287109375,12.0714111328125 " fill="#6767e7" fill-opacity="1"/>
                    <polyline id="Fill-95" points="252,12 250.792236328125,12 247.96697998046875,14.83721923828125 247,17 252,12 " fill="#6767e7" fill-opacity="1"/>
                    <polyline id="Fill-96" points="254,12 252.77545166015625,12 244.9801025390625,19.80596923828125 244,22 254,12 " fill="#6767e7" fill-opacity="1"/>
                    <polyline id="Fill-97" points="254.91375732421875,15.3402099609375 256,13 243.054931640625,25.69012451171875 242.18719482421875,27.6043701171875 242,28 254.91375732421875,15.3402099609375 " fill="#6767e7" fill-opacity="1"/>
                    <polyline id="Fill-98" points="251.92047119140625,20.327880859375 253,18 240.11627197265625,30.63653564453125 239,33 251.92047119140625,20.327880859375 " fill="#6767e7" fill-opacity="1"/>
                    <polyline id="Fill-99" points="249.92364501953125,25.32110595703125 251,23 238.089111328125,35.66680908203125 237,38 249.92364501953125,25.32110595703125 " fill="#6767e7" fill-opacity="1"/>
                    <polyline id="Fill-100" points="247.92584228515625,30.31634521484375 249,28 236.08685302734375,40.67071533203125 235,43 247.92584228515625,30.31634521484375 " fill="#6767e7" fill-opacity="1"/>
                    <polyline id="Fill-101" points="244.92803955078125,36.31201171875 246,34 233.084716796875,46.675048828125 232,49 244.92803955078125,36.31201171875 " fill="#6767e7" fill-opacity="1"/>
                    <polyline id="Fill-102" points="242.9407958984375,41.3331298828125 244,39 233,50 234.26904296875,50 242.9407958984375,41.3331298828125 " fill="#6767e7" fill-opacity="1"/>
                    <polyline id="Fill-103" points="239.9024658203125,46.4183349609375 241,44 235,50 236.31536865234375,50 239.9024658203125,46.4183349609375 " fill="#6767e7" fill-opacity="1"/>
                    <polyline id="Fill-104" points="239,49 238,50 238.54473876953125,50 239,49 " fill="#6767e7" fill-opacity="1"/>
                    <polygon id="Fill-105" points="137,37 144,37 144,0 137,0 " fill="#6767e7" fill-opacity="1"/>
                    <path d="M173.80443300000002,25 C173.83565999999996,21.259724699999992 176.54554099999996,18.19650630000001 180.50021400000003,18.19650630000001 C184.454031,18.19650630000001 187.16476799999998,21.259724699999992 187.19599500000004,25 L194,25 C193.96535100000006,17.800571500000046 188.17001200000004,12 180.50021400000003,12 C172.82998799999996,12 167.03464899999994,17.800571500000046 167,25 L173.80443300000002,25 " id="Fill-106" fill="#6767e7" fill-opacity="1"/>
                    <polygon id="Fill-107" points="56,37 63,37 63,24 56,24 " fill="#6767e7" fill-opacity="1"/>
                    <polygon id="Fill-108" points="91,37 98,37 98,24 91,24 " fill="#6767e7" fill-opacity="1"/>
                    <polygon id="Fill-109" points="73,37 80,37 80,24 73,24 " fill="#6767e7" fill-opacity="1"/>
                    <polygon id="Fill-110" points="199,37 206,37 206,24 199,24 " fill="#6767e7" fill-opacity="1"/>
                    <polygon id="Fill-111" points="217,37 224,37 224,24 217,24 " fill="#6767e7" fill-opacity="1"/>
                    <polyline id="Fill-112" points="34.421142578125,35 23,12 30.526489198207855,12 38,27.35113525390625 " fill="#6767e7" fill-opacity="1"/>
                    <polyline id="Fill-113" points="238.420654296875,35 227,12 234.5260009765625,12 242,27.35113525390625 " fill="#6767e7" fill-opacity="1"/>
                    <path d="M10,32.43021209999995 C7.499895740000056,32.43021209999995 4.8980357800001,31.518882599999984 3.2144793400000253,30 L0,34.70894980000003 C2.908378159999984,36.83538539999995 6.530714380000063,38 9.949122149999994,38 L9.949122149999994,32.428142800000046 C9.965803410000035,32.428142800000046 9.982901710000078,32.43021209999995 10,32.43021209999995 " id="Fill-114" fill="#6767e7" fill-opacity="1"/>
                    <path d="M10.247198399999888,20.755178500000056 C8.909030979999898,20.24776529999997 7.989233139999897,19.693678699999964 7.989233139999897,18.80517050000003 C7.989233139999897,17.80276189999995 8.935838280000098,17.1394851 10.247198399999888,16.882566999999995 L10.247198399999888,11.023550799999953 C10.49725340000009,11.009420299999988 10.748187200000075,11 11,11 C5.838936500000045,11 1,14.038055999999983 1,18.909650499999998 C1,24.489054200000055 6.886618329999919,25.62463200000002 10.623379500000055,27 C10.500329599999986,26.954611099999966 10.37508240000011,26.909650499999998 10.247198399999888,26.86468979999995 L10.247198399999888,20.755178500000056 " id="Fill-115" fill="#6767e7" fill-opacity="1"/>
                    <path d="M112,14.258234700000003 L112,21.027888800000028 C113.43022399999995,19.416066399999977 115.70667700000001,18.177951200000052 118.01476600000001,18.177951200000052 C121.88461200000006,18.177951200000052 124.38042799999994,21.421375499999954 124.38042799999994,25.025460899999985 C124.38042799999994,28.93844390000004 121.57908699999996,31.821628000000032 117.86200299999996,31.821628000000032 C115.61427100000003,31.821628000000032 113.35696400000006,30.5144947 112,28.90098899999998 L112,35.803628900000035 C113.95885699999997,37.29761580000002 116.068396,38 118.52383599999996,38 C122.19013700000005,38 125.70409199999995,36.35240610000005 127.89396699999998,33.77854030000003 C129.82909799999993,31.512730499999975 131,28.423333999999954 131,25.025460899999985 C131,17.662841299999968 125.60211200000003,12 118.88014299999998,12 C116.24280299999998,12 113.88268400000004,12.829478300000005 112,14.258234700000003 " id="Fill-116" fill="#6767e7" fill-opacity="1"/>
                    <polyline id="Fill-117" points="105.7723388671875,13 106.2276611328125,12 105.7723388671875,12 105.7723388671875,13 " fill="#6767e7" fill-opacity="1"/>
                    <polyline id="Fill-118" points="109,13 107.8428955078125,13 106,14.86749267578125 106,16 109,13 " fill="#6767e7" fill-opacity="1"/>
                    <polyline id="Fill-119" points="111,13 109.7574462890625,13 105,17.77197265625 105,19 111,13 " fill="#6767e7" fill-opacity="1"/>
                    <polyline id="Fill-120" points="112,15.28057861328125 112,14 105,20.7198486328125 105,22 112,15.28057861328125 " fill="#6767e7" fill-opacity="1"/>
                    <polyline id="Fill-121" points="112,17.280517578125 112,16 105,22.719482421875 105,24 112,17.280517578125 " fill="#6767e7" fill-opacity="1"/>
                    <polyline id="Fill-122" points="112,20.280517578125 112,19 105,25.719482421875 105,27 112,20.280517578125 " fill="#6767e7" fill-opacity="1"/>
                    <polyline id="Fill-123" points="112,23.2801513671875 112,22 105,28.71942138671875 105,30 112,23.2801513671875 " fill="#6767e7" fill-opacity="1"/>
                    <polyline id="Fill-124" points="112,26.28057861328125 112,25 105,31.7198486328125 105,33 112,26.28057861328125 " fill="#6767e7" fill-opacity="1"/>
                    <polyline id="Fill-125" points="112,29.28057861328125 112,28 105,34.7198486328125 105,36 112,29.28057861328125 " fill="#6767e7" fill-opacity="1"/>
                    <polyline id="Fill-126" points="112,32.28057861328125 112,31 105,37.7198486328125 105,39 112,32.28057861328125 " fill="#6767e7" fill-opacity="1"/>
                    <polyline id="Fill-127" points="112,35.280517578125 112,34 105,40.719482421875 105,42 112,35.280517578125 " fill="#6767e7" fill-opacity="1"/>
                    <polyline id="Fill-128" points="112,38.280517578125 112,37 105,43.719482421875 105,45 112,38.280517578125 " fill="#6767e7" fill-opacity="1"/>
                    <polyline id="Fill-129" points="112,40.2801513671875 112,39 105,45.71942138671875 105,47 112,40.2801513671875 " fill="#6767e7" fill-opacity="1"/>
                    <polyline id="Fill-130" points="112,42 105,48.93328857421875 105,49 106.05474853515625,49 112,43.3212890625 112,42 " fill="#6767e7" fill-opacity="1"/>
                    <polyline id="Fill-131" points="112,46.3067626953125 112,45 108,49 109.2725830078125,49 112,46.3067626953125 " fill="#6767e7" fill-opacity="1"/>
                    <polyline id="Fill-132" points="112,48 111,49 112,49 112,48 " fill="#6767e7" fill-opacity="1"/>
                </g>
            </g>
        </g>
    </g></g></svg>